…
### Line Graphs

By visualizing the trendline of COVID-19 Cases, the data must be grouped
according to dates given followed by the number of cases within each
date using the code below:

    Casecount <- Dataframe %>% count(Dataframe$DateRepConf)
    Casecount$csum <- cumsum(Casecount$n)
    names(Casecount) <- c("Date", "Number.of.Cases", "Cumulative.Sum")

    print(Casecount)

    ## # A tibble: 148 x 3
    ##    Date       Number.of.Cases Cumulative.Sum
    ##    <fct>                <int>          <int>
    ##  1 2020-01-30               1              1
    ##  2 2020-02-03               1              2
    ##  3 2020-02-05               1              3
    ##  4 2020-03-06               2              5
    ##  5 2020-03-07               1              6
    ##  6 2020-03-08               4             10
    ##  7 2020-03-09              14             24
    ##  8 2020-03-10               9             33
    ##  9 2020-03-11              16             49
    ## 10 2020-03-12               3             52
    ## # ... with 138 more rows
…
